receiptnumber,amount,apiuser,apipassword
91296962,100,marianapiuserANZ,pearson123
91296963,999,marianapiuserANZ,pearson123
91296964,459,marianapiuserANZ,pearson123
91296965,459,marianapiuserANZ,pearson123
91296966,459,marianapiuserANZ,pearson123
91296967,345,marianapiuserANZ,pearson123
91296965,345,marianapiuserANZ,pearson123
91296966,666,marianapiuserANZ,pearson123
91296967,777,marianapiuserANZ,pearson123
